Testing stuff out/HDMI_rev0/HDMI_rev0.sim/sim_1/behav/xsim/simulate.log
Vivado Simulator 2019.2
Time resolution is 1 ps
## 0 0 00000000 00 xxxxxxxxxx
## 0 0 00000000 00 xxxxxxxxxx
## 0 0 00000000 00 xxxxxxxxxx
## 1 0 00000000 00 0000000000
## 1 0 00000000 00 0000000000
## 1 0 00000000 00 0000000000
## 1 0 00000000 01 1101010100
## 1 0 00000000 10 1101010100
## 1 0 00000000 11 1101010100
## 1 0 00000000 00 0010101011
## 1 1 00000000 00 0101010100
## 1 1 11111111 00 1010101011
## 1 1 01010101 00 1101010100
## 1 1 10101010 00 0100000000
## 1 1 01010000 00 0011111111
## 1 1 10101111 00 0100110011
## 1 1 10101111 00 1000110011
## 1 1 10101111 00 1111001111
## 1 1 10101111 00 1000110000
## 1 1 10101111 00 1000110000
## 1 1 10101111 00 0011001111
## 1 1 10101111 00 0011001111
## 1 1 10101111 00 1000110000
## 1 1 10101111 00 0011001111
## 1 1 10101111 00 0011001111
